{
  "project_info": {
    "project_number": "632623918264",
    "firebase_url": "https://appfortest-4d8f7.firebaseio.com",
    "project_id": "appfortest-4d8f7",
    "storage_bucket": "appfortest-4d8f7.appspot.com"
  },
  "client": [
    {
      "client_info": {
        "mobilesdk_app_id": "1:632623918264:android:f7eaf4c4ea1f0ce2",
        "android_client_info": {
          "package_name": "com.example.appfortest"
        }
      },
      "oauth_client": [
        {
          "client_id": "632623918264-c7qrtdkc5lhta4g3hh50ohgsfaprt6vs.apps.googleusercontent.com",
          "client_type": 3
        }
      ],
      "api_key": [
        {
          "current_key": "AIzaSyB7xkLPY0D9mIrLL-q2adw0HUlYv3Y-FyE"
        }
      ],
      "services": {
        "analytics_service": {
          "status": 1
        },
        "appinvite_service": {
          "status": 2,
          "other_platform_oauth_client": [
            {
              "client_id": "632623918264-c7qrtdkc5lhta4g3hh50ohgsfaprt6vs.apps.googleusercontent.com",
              "client_type": 3
            }
          ]
        },
        "ads_service": {
          "status": 2
        }
      }
    }
  ],
  "configuration_version": "1"
}